tb_onyx.vcd
$date
	Wed Apr 29 01:12:43 2026
$end
$version
	Icarus Verilog
$end
$timescale
	1ps
$end
$scope module tb_onyx_core $end
$var wire 16 ! total_fires [15:0] $end
$var wire 1 " done $end
$var wire 1 # decision $end
$var wire 32 $ debug_state [31:0] $end
$var parameter 32 % CLK_PERIOD $end
$var parameter 32 & N_SAMPLES $end
$var reg 1 ' clk $end
$var reg 1 ( rst_n $end
$var reg 32 ) signal_value [31:0] $end
$var reg 1 * start $end
$var integer 32 + correct [31:0] $end
$var integer 32 , i [31:0] $end
$scope module dut $end
$var wire 1 ' clk $end
$var wire 1 ( rst_n $end
$var wire 32 - signal_value [31:0] $end
$var wire 1 * start $end
$var wire 1 . vote_valid $end
$var wire 1 / vote_decision $end
$var wire 6 0 osc_firing_dir [5:0] $end
$var wire 6 1 osc_fire_pos [5:0] $end
$var wire 6 2 osc_fire_neg [5:0] $end
$var wire 192 3 osc_fire_counts [191:0] $end
$var parameter 32 4 ACC_WIDTH $end
$var parameter 2 5 DONE_ST $end
$var parameter 2 6 IDLE $end
$var parameter 32 7 N_OSC $end
$var parameter 32 8 N_WINDOW $end
$var parameter 32 9 OFFSET $end
$var parameter 2 : RUN $end
$var parameter 32 ; THRESHOLD $end
$var parameter 2 < VOTE $end
$var reg 32 = debug_state [31:0] $end
$var reg 1 # decision $end
$var reg 1 " done $end
$var reg 8 > sample_counter [7:0] $end
$var reg 2 ? state [1:0] $end
$var reg 8 @ step_counter [7:0] $end
$var reg 16 A total_fires [15:0] $end
$scope begin osc_bank[0] $end
$var parameter 32 B OSC_SEED $end
$var parameter 32 C OSC_TH $end
$var parameter 2 D i $end
$scope module osc $end
$var wire 1 ' clk $end
$var wire 1 E enable $end
$var wire 32 F f_word [31:0] $end
$var wire 1 ( rst_n $end
$var wire 32 G noise [31:0] $end
$var wire 32 H next_lfsr [31:0] $end
$var wire 1 I feedback $end
$var parameter 32 J ACC_WIDTH $end
$var parameter 32 K LFSR_SEED $end
$var parameter 32 L OFFSET $end
$var parameter 32 M THRESHOLD $end
$var reg 32 N acc [31:0] $end
$var reg 32 O fire_count [31:0] $end
$var reg 1 P fire_neg $end
$var reg 1 Q fire_pos $end
$var reg 1 R firing_dir $end
$var reg 32 S lfsr_state [31:0] $end
$upscope $end
$upscope $end
$scope begin osc_bank[1] $end
$var parameter 32 T OSC_SEED $end
$var parameter 32 U OSC_TH $end
$var parameter 2 V i $end
$scope module osc $end
$var wire 1 ' clk $end
$var wire 1 W enable $end
$var wire 32 X f_word [31:0] $end
$var wire 1 ( rst_n $end
$var wire 32 Y noise [31:0] $end
$var wire 32 Z next_lfsr [31:0] $end
$var wire 1 [ feedback $end
$var parameter 32 \ ACC_WIDTH $end
$var parameter 32 ] LFSR_SEED $end
$var parameter 32 ^ OFFSET $end
$var parameter 32 _ THRESHOLD $end
$var reg 32 ` acc [31:0] $end
$var reg 32 a fire_count [31:0] $end
$var reg 1 b fire_neg $end
$var reg 1 c fire_pos $end
$var reg 1 d firing_dir $end
$var reg 32 e lfsr_state [31:0] $end
$upscope $end
$upscope $end
$scope begin osc_bank[2] $end
$var parameter 32 f OSC_SEED $end
$var parameter 32 g OSC_TH $end
$var parameter 3 h i $end
$scope module osc $end
$var wire 1 ' clk $end
$var wire 1 i enable $end
$var wire 32 j f_word [31:0] $end
$var wire 1 ( rst_n $end
$var wire 32 k noise [31:0] $end
$var wire 32 l next_lfsr [31:0] $end
$var wire 1 m feedback $end
$var parameter 32 n ACC_WIDTH $end
$var parameter 32 o LFSR_SEED $end
$var parameter 32 p OFFSET $end
$var parameter 32 q THRESHOLD $end
$var reg 32 r acc [31:0] $end
$var reg 32 s fire_count [31:0] $end
$var reg 1 t fire_neg $end
$var reg 1 u fire_pos $end
$var reg 1 v firing_dir $end
$var reg 32 w lfsr_state [31:0] $end
$upscope $end
$upscope $end
$scope begin osc_bank[3] $end
$var parameter 32 x OSC_SEED $end
$var parameter 32 y OSC_TH $end
$var parameter 3 z i $end
$scope module osc $end
$var wire 1 ' clk $end
$var wire 1 { enable $end
$var wire 32 | f_word [31:0] $end
$var wire 1 ( rst_n $end
$var wire 32 } noise [31:0] $end
$var wire 32 ~ next_lfsr [31:0] $end
$var wire 1 !" feedback $end
$var parameter 32 "" ACC_WIDTH $end
$var parameter 32 #" LFSR_SEED $end
$var parameter 32 $" OFFSET $end
$var parameter 32 %" THRESHOLD $end
$var reg 32 &" acc [31:0] $end
$var reg 32 '" fire_count [31:0] $end
$var reg 1 (" fire_neg $end
$var reg 1 )" fire_pos $end
$var reg 1 *" firing_dir $end
$var reg 32 +" lfsr_state [31:0] $end
$upscope $end
$upscope $end
$scope begin osc_bank[4] $end
$var parameter 32 ," OSC_SEED $end
$var parameter 32 -" OSC_TH $end
$var parameter 4 ." i $end
$scope module osc $end
$var wire 1 ' clk $end
$var wire 1 /" enable $end
$var wire 32 0" f_word [31:0] $end
$var wire 1 ( rst_n $end
$var wire 32 1" noise [31:0] $end
$var wire 32 2" next_lfsr [31:0] $end
$var wire 1 3" feedback $end
$var parameter 32 4" ACC_WIDTH $end
$var parameter 32 5" LFSR_SEED $end
$var parameter 32 6" OFFSET $end
$var parameter 32 7" THRESHOLD $end
$var reg 32 8" acc [31:0] $end
$var reg 32 9" fire_count [31:0] $end
$var reg 1 :" fire_neg $end
$var reg 1 ;" fire_pos $end
$var reg 1 <" firing_dir $end
$var reg 32 =" lfsr_state [31:0] $end
$upscope $end
$upscope $end
$scope begin osc_bank[5] $end
$var parameter 32 >" OSC_SEED $end
$var parameter 32 ?" OSC_TH $end
$var parameter 4 @" i $end
$scope module osc $end
$var wire 1 ' clk $end
$var wire 1 A" enable $end
$var wire 32 B" f_word [31:0] $end
$var wire 1 ( rst_n $end
$var wire 32 C" noise [31:0] $end
$var wire 32 D" next_lfsr [31:0] $end
$var wire 1 E" feedback $end
$var parameter 32 F" ACC_WIDTH $end
$var parameter 32 G" LFSR_SEED $end
$var parameter 32 H" OFFSET $end
$var parameter 32 I" THRESHOLD $end
$var reg 32 J" acc [31:0] $end
$var reg 32 K" fire_count [31:0] $end
$var reg 1 L" fire_neg $end
$var reg 1 M" fire_pos $end
$var reg 1 N" firing_dir $end
$var reg 32 O" lfsr_state [31:0] $end
$upscope $end
$upscope $end
$scope module voter $end
$var wire 192 P" fire_counts [191:0] $end
$var wire 6 Q" firing_dir [5:0] $end
$var parameter 32 R" COUNT_WIDTH $end
$var parameter 32 S" N_INPUTS $end
$var reg 1 / decision $end
$var reg 32 T" neg_fires [31:0] $end
$var reg 32 U" neg_votes [31:0] $end
$var reg 32 V" pos_fires [31:0] $end
$var reg 32 W" pos_votes [31:0] $end
$var reg 1 . valid $end
$var integer 32 X" i [31:0] $end
$upscope $end
$upscope $end
$upscope $end
$enddefinitions $end
$comment Show the parameter values. $end
$dumpall
b110 S"
b100000 R"
b110011001100110011001100110100 I"
b100000000000000000000000000000 H"
b11111100111000010100001010111101 G"
b100000 F"
b101 @"
b110011001100110011001100110100 ?"
b11111100111000010100001010111101 >"
b110011001100110011001100110100 7"
b100000000000000000000000000000 6"
b11101100111000010100001010111101 5"
b100000 4"
b100 ."
b110011001100110011001100110100 -"
b11101100111000010100001010111101 ,"
b110011001100110011001100110100 %"
b100000000000000000000000000000 $"
b11011100111000010100001010111101 #"
b100000 ""
b11 z
b110011001100110011001100110100 y
b11011100111000010100001010111101 x
b110011001100110011001100110100 q
b100000000000000000000000000000 p
b11001100111000010100001010111101 o
b100000 n
b10 h
b110011001100110011001100110100 g
b11001100111000010100001010111101 f
b110011001100110011001100110100 _
b100000000000000000000000000000 ^
b10111100111000010100001010111101 ]
b100000 \
b1 V
b110011001100110011001100110100 U
b10111100111000010100001010111101 T
b110011001100110011001100110100 M
b100000000000000000000000000000 L
b10101100111000010100001010111101 K
b100000 J
b0 D
b110011001100110011001100110100 C
b10101100111000010100001010111101 B
b10 <
b1000000000000000000000000000000 ;
b1 :
b100000000000000000000000000000 9
b10 8
b110 7
b0 6
b11 5
b100000 4
b110010 &
b1010 %
$end
#0
$dumpvars
b110 X"
b0 W"
b0 V"
b110 U"
b0 T"
b0 Q"
b0 P"
b11111100111000010100001010111101 O"
0N"
0M"
0L"
b0 K"
b0 J"
1E"
b11111001110000101000010101111010 D"
b1111100111000010000000000000000 C"
b0 B"
0A"
b11101100111000010100001010111101 ="
0<"
0;"
0:"
b0 9"
b0 8"
13"
b11011001110000101000010101111010 2"
b1101100111000010000000000000000 1"
b0 0"
0/"
b11011100111000010100001010111101 +"
0*"
0)"
0("
b0 '"
b0 &"
1!"
b10111001110000101000010101111010 ~
b1011100111000010000000000000000 }
b0 |
0{
b11001100111000010100001010111101 w
0v
0u
0t
b0 s
b0 r
1m
b10011001110000101000010101111010 l
b1001100111000010000000000000000 k
b0 j
0i
b10111100111000010100001010111101 e
0d
0c
0b
b0 a
b0 `
1[
b1111001110000101000010101111010 Z
b111100111000010000000000000000 Y
b0 X
0W
b10101100111000010100001010111101 S
0R
0Q
0P
b0 O
b0 N
1I
b1011001110000101000010101111010 H
b101100111000010000000000000000 G
b0 F
0E
b0 A
b0 @
b0 ?
b0 >
b0 =
b0 3
b0 2
b0 1
b0 0
0/
1.
b0 -
b110010 ,
b0 +
0*
b0 )
0(
0'
b0 $
0#
0"
b0 !
$end
#5000
1'
#10000
0'
#15000
1'
#20000
0'
1(
#25000
b1 $
b1 =
1'
#30000
0'
1*
b100000000000000000000000000000 )
b100000000000000000000000000000 -
b100000000000000000000000000000 F
b100000000000000000000000000000 X
b100000000000000000000000000000 j
b100000000000000000000000000000 |
b100000000000000000000000000000 0"
b100000000000000000000000000000 B"
b0 ,
#35000
1E
1W
1i
1{
1/"
1A"
b1 ?
1'
#40000
0'
0*
#45000
0E"
b10011010111111001010110001001100 D"
b11001101011111100000000000000000 C"
03"
b11011010111111001010110001001100 2"
b11101101011111100000000000000000 1"
0!"
b11010111111001010110001001100 ~
b10001101011111100000000000000000 }
0m
b1011010111111001010110001001100 l
b10101101011111100000000000000000 k
0[
b10011010111111001010110001001100 Z
b1001101011111100000000000000000 Y
0I
b11011010111111001010110001001100 H
b1101101011111100000000000000000 G
b100000000 $
b100000000 =
b1 @
b10011100111000010000000000000000 J"
b1001101011111100101011000100110 O"
b10001100111000010000000000000000 8"
b1101101011111100101011000100110 ="
b1111100111000010000000000000000 &"
b1101011111100101011000100110 +"
b1101100111000010000000000000000 r
b101101011111100101011000100110 w
b1011100111000010000000000000000 `
b11001101011111100101011000100110 e
b1001100111000010000000000000000 N
b11101101011111100101011000100110 S
1'
#50000
0'
#55000
b10110101111110010101100010011000 H
b1011010111111000000000000000000 G
b110101111110010101100010011000 Z
b11010111111000000000000000000 Y
b10110101111110010101100010011000 l
b11011010111111000000000000000000 k
b110101111110010101100010011000 ~
b10011010111111000000000000000000 }
b10110101111110010101100010011000 2"
b1011010111111000000000000000000 1"
1/
b10 T"
b100 V"
b100 W"
b110 X"
b10 U"
b110101111110010101100010011000 D"
b11010111111000000000000000000 C"
b1 O
1R
1Q
b101100111000010000000000000000 N
b11011010111111001010110001001100 S
b1 a
1d
1c
b111100111000010000000000000000 `
b10011010111111001010110001001100 e
b1 s
1v
1u
b1001100111000010000000000000000 r
b1011010111111001010110001001100 w
b1 '"
b1111 0
b1111 Q"
1*"
b1111 1
1)"
b1011100111000010000000000000000 &"
b11010111111001010110001001100 +"
b1 9"
1:"
b10101100111000010000000000000000 8"
b11011010111111001010110001001100 ="
b10000000000000000000000000000000100000000000000000000000000000001000000000000000000000000000000010000000000000000000000000000000100000000000000000000000000000001 3
b10000000000000000000000000000000100000000000000000000000000000001000000000000000000000000000000010000000000000000000000000000000100000000000000000000000000000001 P"
b1 K"
b110000 2
1L"
b10111100111000010000000000000000 J"
b10011010111111001010110001001100 O"
0E
0W
0i
0{
0/"
0A"
b10 ?
b100000001 $
b100000001 =
b10 @
1'
#60000
0'
#65000
b11 $
b11 =
b11 ?
b110 !
b110 A
1'
#70000
0'
#75000
b0 ?
b11111111100000001 $
b11111111100000001 =
1"
1#
1'
#76000
b1 +
#80000
0'
#85000
b1 $
b1 =
0"
1'
#86000
1*
b1 ,
#90000
0'
#95000
b0 @
1E
1W
1i
1{
1/"
1A"
b1 ?
1'
#96000
0*
#100000
0'
#105000
b1101011111100101011000100110000 D"
b10110101111110010000000000000000 C"
b1101011111100101011000100110000 2"
b110101111110010000000000000000 1"
b1101011111100101011000100110000 ~
b10110101111110010000000000000000 }
b1101011111100101011000100110000 l
b110101111110010000000000000000 k
b110 X"
b100 T"
b111 V"
b10 U"
b100 W"
b1101011111100101011000100110000 Z
b10110101111110010000000000000000 Y
b1101011111100101011000100110000 H
b110101111110010000000000000000 G
b100000000 $
b100000000 =
b1 @
b10 K"
b11011100111000010000000000000000 J"
b110101111110010101100010011000 O"
b10 9"
b11001100111000010000000000000000 8"
b10110101111110010101100010011000 ="
b10 '"
b111100111000010000000000000000 &"
b110101111110010101100010011000 +"
b10 s
b101100111000010000000000000000 r
b10110101111110010101100010011000 w
b100000000000000000000000000000001000000000000000000000000000000010000000000000000000000000000000100000000000000000000000000000001000000000000000000000000000000001 3
b100000000000000000000000000000001000000000000000000000000000000010000000000000000000000000000000100000000000000000000000000000001000000000000000000000000000000001 P"
b10 a
b11100111000010000000000000000 `
b110101111110010101100010011000 e
b1110 1
0Q
b10100111110111010000000000000000 N
b10110101111110010101100010011000 S
1'
#110000
0'
#115000
b11010111111001010110001001100000 H
b11101011111100100000000000000000 G
b11010111111001010110001001100000 Z
b11101011111100100000000000000000 Y
b11010111111001010110001001100000 l
b11101011111100100000000000000000 k
b110 X"
b110 T"
b111 V"
b11 U"
b11 W"
b11010111111001010110001001100000 ~
b11101011111100100000000000000000 }
b11010111111001010110001001100000 2"
b11101011111100100000000000000000 1"
b11010111111001010110001001100000 D"
b11101011111100100000000000000000 C"
b10 O
b1110 0
b1110 Q"
0R
1P
b11000111110111010000000000000000 N
b1101011111100101011000100110000 S
0c
b11110010110110100000000000000000 `
b1101011111100101011000100110000 e
b1000 1
0u
b10000010110110100000000000000000 r
b1101011111100101011000100110000 w
b100000000000000000000000000000001000000000000000000000000000000011000000000000000000000000000000100000000000000000000000000000001000000000000000000000000000000010 3
b100000000000000000000000000000001000000000000000000000000000000011000000000000000000000000000000100000000000000000000000000000001000000000000000000000000000000010 P"
b11 '"
b11100111000010000000000000000 &"
b1101011111100101011000100110000 +"
0:"
b100010110110100000000000000000 8"
b1101011111100101011000100110000 ="
b1 2
0L"
b10110010110110100000000000000000 J"
b1101011111100101011000100110000 O"
0E
0W
0i
0{
0/"
0A"
b10 ?
b100000001 $
b100000001 =
b10 @
1'
#120000
0'
#125000
b11 $
b11 =
b11 ?
b1101 !
b1101 A
1'
#130000
0'
#135000
b0 ?
b11111111100000001 $
b11111111100000001 =
1"
1'
#136000
b10 +
#140000
0'
#145000
b1 $
b1 =
0"
1'
#146000
1*
b10 ,
#150000
0'
#155000
b0 @
1E
1W
1i
1{
1/"
1A"
b1 ?
1'
#156000
0*
#160000
0'
#165000
b10101111110010101100010011000000 D"
b1010111111001010000000000000000 C"
b10101111110010101100010011000000 2"
b1010111111001010000000000000000 1"
b10101111110010101100010011000000 ~
b1010111111001010000000000000000 }
b10101111110010101100010011000000 l
b1010111111001010000000000000000 k
b10101111110010101100010011000000 Z
b1010111111001010000000000000000 Y
0/
b110 X"
b1011 T"
b101 V"
b100 U"
b10 W"
b10101111110010101100010011000000 H
b1010111111001010000000000000000 G
b100000000 $
b100000000 =
b1 @
b11 K"
1L"
b11010010110110100000000000000000 J"
b11010111111001010110001001100000 O"
b101110110011000000000000000000 8"
b11010111111001010110001001100000 ="
b0 1
0)"
b101000110100110000000000000000 &"
b11010111111001010110001001100000 +"
b11 s
b1010 0
b1010 Q"
0v
b100101 2
1t
b10100010110110100000000000000000 r
b11010111111001010110001001100000 w
b11111110110011000000000000000000 `
b11010111111001010110001001100000 e
b110000000000000000000000000000001000000000000000000000000000000011000000000000000000000000000000110000000000000000000000000000001000000000000000000000000000000011 3
b110000000000000000000000000000001000000000000000000000000000000011000000000000000000000000000000110000000000000000000000000000001000000000000000000000000000000011 P"
b11 O
b11100111110111010000000000000000 N
b11010111111001010110001001100000 S
1'
#170000
0'
#175000
b1011111100101011000100110000000 H
b101111110010100000000000000000 G
b1011111100101011000100110000000 Z
b101111110010100000000000000000 Y
b110 X"
b1100 T"
b101 V"
b100 U"
b10 W"
b1011111100101011000100110000000 l
b101111110010100000000000000000 k
b1011111100101011000100110000000 ~
b101111110010100000000000000000 }
b1011111100101011000100110000000 2"
b101111110010100000000000000000 1"
b1011111100101011000100110000000 D"
b101111110010100000000000000000 C"
0P
b1011111110000100000000000000000 N
b10101111110010101100010011000000 S
b1110110101100010000000000000000 `
b10101111110010101100010011000000 e
b110000000000000000000000000000001000000000000000000000000000000011000000000000000000000000000001000000000000000000000000000000001000000000000000000000000000000011 3
b110000000000000000000000000000001000000000000000000000000000000011000000000000000000000000000001000000000000000000000000000000001000000000000000000000000000000011 P"
b100 s
b11000010110110100000000000000000 r
b10101111110010101100010011000000 w
b10100000101110000000000000000000 &"
b10101111110010101100010011000000 +"
b10100110101100010000000000000000 8"
b10101111110010101100010011000000 ="
b100 2
0L"
b1001010101111110000000000000000 J"
b10101111110010101100010011000000 O"
0E
0W
0i
0{
0/"
0A"
b10 ?
b100000001 $
b100000001 =
b10 @
1'
#180000
0'
#185000
b11 $
b11 =
b11 ?
b10001 !
b10001 A
1'
#190000
0'
#195000
b0 ?
b11111111000000001 $
b11111111000000001 =
1"
0#
1'
#200000
0'
#205000
b1 $
b1 =
0"
1'
#206000
1*
b11 ,
#210000
0'
#215000
b0 @
1E
1W
1i
1{
1/"
1A"
b1 ?
1'
#216000
0*
#220000
0'
#225000
b10111111001010110001001100000000 D"
b11011111100101010000000000000000 C"
b10111111001010110001001100000000 2"
b11011111100101010000000000000000 1"
b10111111001010110001001100000000 ~
b11011111100101010000000000000000 }
b10111111001010110001001100000000 l
b11011111100101010000000000000000 k
b10111111001010110001001100000000 Z
b11011111100101010000000000000000 Y
b110 X"
b1100 T"
b1011 V"
b11 U"
b11 W"
b10111111001010110001001100000000 H
b11011111100101010000000000000000 G
b100000000 $
b100000000 =
b1 @
b100 K"
1N"
1M"
b101010101111110000000000000000 J"
b1011111100101011000100110000000 O"
b11 9"
1:"
b11000110101100010000000000000000 8"
b1011111100101011000100110000000 ="
b100 '"
0*"
b11100 2
1("
b11000000101110000000000000000000 &"
b1011111100101011000100110000000 +"
b101 s
b11100010110110100000000000000000 r
b1011111100101011000100110000000 w
b11 a
1c
b1010110101100010000000000000000 `
b1011111100101011000100110000000 e
b1000000000000000000000000000000001100000000000000000000000000000100000000000000000000000000000001010000000000000000000000000000001100000000000000000000000000000100 3
b1000000000000000000000000000000001100000000000000000000000000000100000000000000000000000000000001010000000000000000000000000000001100000000000000000000000000000100 P"
b100 O
b100011 0
b100011 Q"
1R
b100011 1
1Q
b111111110000100000000000000000 N
b1011111100101011000100110000000 S
1'
#230000
0'
#235000
b1111110010101100010011000000000 H
b111111001010110000000000000000 G
b1111110010101100010011000000000 Z
b111111001010110000000000000000 Y
b1111110010101100010011000000000 l
b111111001010110000000000000000 k
b1111110010101100010011000000000 ~
b111111001010110000000000000000 }
b110 X"
b1110 T"
b1101 V"
b11 U"
b11 W"
b1111110010101100010011000000000 2"
b111111001010110000000000000000 1"
b1111110010101100010011000000000 D"
b111111001010110000000000000000 C"
b101 O
b11111110000100000000000000000 N
b10111111001010110001001100000000 S
b100 a
b110110101100010000000000000000 `
b10111111001010110001001100000000 e
b11000 2
0t
b11100010011011110000000000000000 r
b10111111001010110001001100000000 w
b101 '"
b11100000101110000000000000000000 &"
b10111111001010110001001100000000 +"
b1000000000000000000000000000000010000000000000000000000000000000101000000000000000000000000000001010000000000000000000000000000010000000000000000000000000000000101 3
b1000000000000000000000000000000010000000000000000000000000000000101000000000000000000000000000001010000000000000000000000000000010000000000000000000000000000000101 P"
b100 9"
b11100110101100010000000000000000 8"
b10111111001010110001001100000000 ="
b11 1
0M"
b101010010101000000000000000000 J"
b10111111001010110001001100000000 O"
0E
0W
0i
0{
0/"
0A"
b10 ?
b100000001 $
b100000001 =
b10 @
1'
#240000
0'
#245000
b11 $
b11 =
b11 ?
b11011 !
b11011 A
1'
#250000
0'
#255000
b0 ?
b11111111000000001 $
b11111111000000001 =
1"
1'
#260000
0'
#265000
b1 $
b1 =
0"
1'
#266000
1*
b100 ,
#270000
0'
#275000
b0 @
1E
1W
1i
1{
1/"
1A"
b1 ?
1'
#276000
0*
#280000
0'
#285000
b11111100101011000100110000000000 D"
b11111110010101100000000000000000 C"
b11111100101011000100110000000000 2"
b11111110010101100000000000000000 1"
b11111100101011000100110000000000 ~
b11111110010101100000000000000000 }
b11111100101011000100110000000000 l
b11111110010101100000000000000000 k
1/
b110 X"
b1110 T"
b1110 V"
b11 U"
b11 W"
b11111100101011000100110000000000 Z
b11111110010101100000000000000000 Y
b11111100101011000100110000000000 H
b11111110010101100000000000000000 G
b100000000 $
b100000000 =
b1 @
b10001001011111110000000000000000 J"
b1111110010101100010011000000000 O"
0:"
b1000101110111000000000000000000 8"
b1111110010101100010011000000000 ="
b0 2
0("
b111111111000110000000000000000 &"
b1111110010101100010011000000000 +"
b1000001100110100000000000000000 r
b1111110010101100010011000000000 w
b1000000000000000000000000000000010000000000000000000000000000000101000000000000000000000000000001010000000000000000000000000000010100000000000000000000000000000101 3
b1000000000000000000000000000000010000000000000000000000000000000101000000000000000000000000000001010000000000000000000000000000010100000000000000000000000000000101 P"
b101 a
b10110101100010000000000000000 `
b1111110010101100010011000000000 e
b10 1
0Q
b1111110111011010000000000000000 N
b1111110010101100010011000000000 S
1'
#290000
0'
#295000
b11111001010110001001100000000000 H
b1111100101011000000000000000000 G
b11111001010110001001100000000000 Z
b1111100101011000000000000000000 Y
b11111001010110001001100000000000 l
b1111100101011000000000000000000 k
b11111001010110001001100000000000 ~
b1111100101011000000000000000000 }
b11111001010110001001100000000000 2"
b1111100101011000000000000000000 1"
b110 X"
b101 T"
b11100 V"
b1 U"
b101 W"
b11111001010110001001100000000000 D"
b1111100101011000000000000000000 C"
b110 O
1Q
b1011110111011010000000000000000 N
b11111100101011000100110000000000 S
0c
b110101000001110000000000000000 `
b11111100101011000100110000000000 e
b110 s
1v
1u
b100001100110100000000000000000 r
b11111100101011000100110000000000 w
b110 '"
1*"
1)"
b11111111000110000000000000000 &"
b11111100101011000100110000000000 +"
b101 9"
1<"
b11101 1
1;"
b100101110111000000000000000000 8"
b11111100101011000100110000000000 ="
b1010000000000000000000000000000010100000000000000000000000000000110000000000000000000000000000001100000000000000000000000000000010100000000000000000000000000000110 3
b1010000000000000000000000000000010100000000000000000000000000000110000000000000000000000000000001100000000000000000000000000000010100000000000000000000000000000110 P"
b101 K"
b11111 0
b11111 Q"
0N"
b100000 2
1L"
b10101001011111110000000000000000 J"
b11111100101011000100110000000000 O"
0E
0W
0i
0{
0/"
0A"
b10 ?
b100000001 $
b100000001 =
b10 @
1'
#300000
0'
#305000
b11 $
b11 =
b11 ?
b100001 !
b100001 A
1'
#310000
0'
#315000
b0 ?
b11111111100000001 $
b11111111100000001 =
1"
1#
1'
#316000
b11 +
#320000
0'
#325000
b1 $
b1 =
0"
1'
#326000
1*
b101 ,
#330000
0'
#335000
b0 @
1E
1W
1i
1{
1/"
1A"
b1 ?
1'
#336000
0*
#340000
0'
#345000
b11110010101100010011000000000000 D"
b1111001010110000000000000000000 C"
b11110010101100010011000000000000 2"
b1111001010110000000000000000000 1"
b11110010101100010011000000000000 ~
b1111001010110000000000000000000 }
b11110010101100010011000000000000 l
b1111001010110000000000000000000 k
b11110010101100010011000000000000 Z
b1111001010110000000000000000000 Y
b110 X"
b110 T"
b11110 V"
b1 U"
b101 W"
b11110010101100010011000000000000 H
b1111001010110000000000000000000 G
b100000000 $
b100000000 =
b1 @
b110 K"
b11001001011111110000000000000000 J"
b11111001010110001001100000000000 O"
0;"
b11000010100010000000000000000000 8"
b11111001010110001001100000000000 ="
0)"
b10111100100011110000000000000000 &"
b11111001010110001001100000000000 +"
0u
b10111110010001100000000000000000 r
b11111001010110001001100000000000 w
b110 a
b11 1
1c
b10101000001110000000000000000 `
b11111001010110001001100000000000 e
b1100000000000000000000000000000010100000000000000000000000000000110000000000000000000000000000001100000000000000000000000000000011000000000000000000000000000000111 3
b1100000000000000000000000000000010100000000000000000000000000000110000000000000000000000000000001100000000000000000000000000000011000000000000000000000000000000111 P"
b111 O
b111110111011010000000000000000 N
b11111001010110001001100000000000 S
1'
#350000
0'
#355000
b11100101011000100110000000000000 H
b1110010101100010000000000000000 G
b11100101011000100110000000000000 Z
b1110010101100010000000000000000 Y
b11100101011000100110000000000000 l
b1110010101100010000000000000000 k
b11100101011000100110000000000000 ~
b1110010101100010000000000000000 }
b11100101011000100110000000000000 2"
b1110010101100010000000000000000 1"
0/
b110 X"
b11011 T"
b1110 V"
b100 U"
b10 W"
b11100101011000100110000000000000 D"
b1110010101100010000000000000000 C"
b1000 O
b11110111011010000000000000000 N
b11110010101100010011000000000000 S
b1 1
0c
b10101110010111110000000000000000 `
b11110010101100010011000000000000 e
b111 s
0v
1t
b11011110010001100000000000000000 r
b11110010101100010011000000000000 w
b111 '"
0*"
1("
b11011100100011110000000000000000 &"
b11110010101100010011000000000000 +"
b110 9"
b11 0
b11 Q"
0<"
b111100 2
1:"
b11100010100010000000000000000000 8"
b11110010101100010011000000000000 ="
b1110000000000000000000000000000011000000000000000000000000000000111000000000000000000000000000001110000000000000000000000000000011000000000000000000000000000001000 3
b1110000000000000000000000000000011000000000000000000000000000000111000000000000000000000000000001110000000000000000000000000000011000000000000000000000000000001000 P"
b111 K"
b11101001011111110000000000000000 J"
b11110010101100010011000000000000 O"
0E
0W
0i
0{
0/"
0A"
b10 ?
b100000001 $
b100000001 =
b10 @
1'
#360000
0'
#365000
b11 $
b11 =
b11 ?
b101001 !
b101001 A
1'
#370000
0'
#375000
b0 ?
b11111111000000001 $
b11111111000000001 =
1"
0#
1'
#380000
0'
#385000
b1 $
b1 =
0"
1'
#386000
1*
b110 ,
#390000
0'
#395000
b0 @
1E
1W
1i
1{
1/"
1A"
b1 ?
1'
#396000
0*
#400000
0'
#405000
b11001010110001001100000000000000 D"
b1100101011000100000000000000000 C"
b11001010110001001100000000000000 2"
b1100101011000100000000000000000 1"
b11001010110001001100000000000000 ~
b1100101011000100000000000000000 }
b11001010110001001100000000000000 l
b1100101011000100000000000000000 k
b110 X"
b100010 T"
b1000 V"
b101 U"
b1 W"
b11001010110001001100000000000000 Z
b1100101011000100000000000000000 Y
b11001010110001001100000000000000 H
b1100101011000100000000000000000 G
b100000000 $
b100000000 =
b1 @
0L"
b1111100001100000000000000000000 J"
b11100101011000100110000000000000 O"
0:"
b1110101001110010000000000000000 8"
b11100101011000100110000000000000 ="
0("
b1101111010000000000000000000000 &"
b11100101011000100110000000000000 +"
0t
b1110000111101110000000000000000 r
b11100101011000100110000000000000 w
b1110000000000000000000000000000011000000000000000000000000000000111000000000000000000000000000001110000000000000000000000000000011100000000000000000000000000001000 3
b1110000000000000000000000000000011000000000000000000000000000000111000000000000000000000000000001110000000000000000000000000000011100000000000000000000000000001000 P"
b111 a
b1 0
b1 Q"
0d
b10 2
1b
b11001110010111110000000000000000 `
b11100101011000100110000000000000 e
b0 1
0Q
b10110001100111100000000000000000 N
b11100101011000100110000000000000 S
1'
#410000
0'
#415000
b10010101100010011000000000000000 H
b1001010110001000000000000000000 G
b10010101100010011000000000000000 Z
b1001010110001000000000000000000 Y
b10010101100010011000000000000000 l
b1001010110001000000000000000000 k
b10010101100010011000000000000000 ~
b1001010110001000000000000000000 }
b10010101100010011000000000000000 2"
b1001010110001000000000000000000 1"
1/
b110 X"
b10000 T"
b11111 V"
b10 U"
b100 W"
b10010101100010011000000000000000 D"
b1001010110001000000000000000000 C"
b1001 O
0R
1P
b11010001100111100000000000000000 N
b11001010110001001100000000000000 S
b1 2
0b
b1010011110000010000000000000000 `
b11001010110001001100000000000000 e
b1000 s
1v
1u
b1010000111101110000000000000000 r
b11001010110001001100000000000000 w
b1000 '"
1*"
1)"
b1001111010000000000000000000000 &"
b11001010110001001100000000000000 +"
b111 9"
1<"
1;"
b1010101001110010000000000000000 8"
b11001010110001001100000000000000 ="
b10000000000000000000000000000000011100000000000000000000000000001000000000000000000000000000000010000000000000000000000000000000011100000000000000000000000000001001 3
b10000000000000000000000000000000011100000000000000000000000000001000000000000000000000000000000010000000000000000000000000000000011100000000000000000000000000001001 P"
b1000 K"
b111100 0
b111100 Q"
1N"
b111100 1
1M"
b1011100001100000000000000000000 J"
b11001010110001001100000000000000 O"
0E
0W
0i
0{
0/"
0A"
b10 ?
b100000001 $
b100000001 =
b10 @
1'
#420000
0'
#425000
b11 $
b11 =
b11 ?
b101111 !
b101111 A
1'
#430000
0'
#435000
b0 ?
b11111111100000001 $
b11111111100000001 =
1"
1#
1'
#436000
b100 +
#440000
0'
#445000
b1 $
b1 =
0"
1'
#446000
1*
b111 ,
#450000
0'
#455000
b0 @
1E
1W
1i
1{
1/"
1A"
b1 ?
1'
#456000
0*
#460000
0'
